R_Final_Project
…
Now we are good to go for our analysis. Considering our research objectives, we will be moving forward question by question.

How many atp tournements in each year? and which year has most ATP tournaments?

max_atp <- tennis %>%
  group_by(year) %>%
  dplyr::summarize(number_of_tournaments = n()) %>%
  arrange(desc(number_of_tournaments))

max_atp

## # A tibble: 141 x 2
##     year number_of_tournaments
##    <int>                 <int>
##  1  1982                   102
##  2  1976                   100
##  3  1977                   100
##  4  1980                    98
##  5  1973                    94
##  6  1974                    94
##  7  1975                    93
##  8  1979                    93
##  9  1978                    92
## 10  1981                    90
## # ... with 131 more rows
…
